%YAML 1.1
%TAG !u! tag:unity3d.com,2011:
--- !u!114 &11400000
MonoBehaviour:
  m_ObjectHideFlags: 0
  m_CorrespondingSourceObject: {fileID: 0}
  m_PrefabInstance: {fileID: 0}
  m_PrefabAsset: {fileID: 0}
  m_GameObject: {fileID: 0}
  m_Enabled: 1
  m_EditorHideFlags: 0
  m_Script: {fileID: 11500000, guid: a7095db5a5da4432bb4181cb7c6100c5, type: 3}
  m_Name: InvalidCrosshair
  m_EditorClassIdentifier: 
  Sprite: {fileID: 21300000, guid: 635758916dd1bdd47879ca6a7be2521f, type: 3}
